"id","name","parent_id","description","geographic_boundary_type_id","is_leaf","status"
1,"TÜRKİYE",0,"açıklama",1,0,"active"
2,"ADANA",1,"açıklama",2,0,"active"
3,"ADIYAMAN",1,"açıklama",2,0,"active"
4,"AFYONKARAHİSAR",1,"açıklama",2,0,"active"
5,"AĞRI",1,"açıklama",2,0,"active"
6,"AMASYA",1,"açıklama",2,0,"active"
7,"ANKARA",1,"açıklama",2,0,"active"
8,"ANTALYA",1,"açıklama",2,0,"active"
9,"ARTVİN",1,"açıklama",2,0,"active"
10,"AYDIN",1,"açıklama",2,0,"active"
11,"BALIKESİR",1,"açıklama",2,0,"active"
12,"BİLECİK",1,"açıklama",2,0,"active"
13,"BİNGÖL",1,"açıklama",2,0,"active"
14,"BİTLİS",1,"açıklama",2,0,"active"
15,"BOLU",1,"açıklama",2,0,"active"
16,"BURDUR",1,"açıklama",2,0,"active"
17,"BURSA",1,"açıklama",2,0,"active"
18,"ÇANAKKALE",1,"açıklama",2,0,"active"
19,"ÇANKIRI",1,"açıklama",2,0,"active"
20,"ÇORUM",1,"açıklama",2,0,"active"
21,"DENİZLİ",1,"açıklama",2,0,"active"
22,"DİYARBAKIR",1,"açıklama",2,0,"active"
23,"EDİRNE",1,"açıklama",2,0,"active"
24,"ELAZIĞ",1,"açıklama",2,0,"active"
25,"ERZİNCAN",1,"açıklama",2,0,"active"
26,"ERZURUM",1,"açıklama",2,0,"active"
27,"ESKİŞEHİR",1,"açıklama",2,0,"active"
28,"GAZİANTEP",1,"açıklama",2,0,"active"
29,"GİRESUN",1,"açıklama",2,0,"active"
30,"GÜMÜŞHANE",1,"açıklama",2,0,"active"
31,"HAKKARİ",1,"açıklama",2,0,"active"
32,"HATAY",1,"açıklama",2,0,"active"
33,"ISPARTA",1,"açıklama",2,0,"active"
34,"MERSİN",1,"açıklama",2,0,"active"
35,"İSTANBUL",1,"açıklama",2,0,"active"
36,"İZMİR",1,"açıklama",2,0,"active"
37,"KARS",1,"açıklama",2,0,"active"
38,"KASTAMONU",1,"açıklama",2,0,"active"
39,"KAYSERİ",1,"açıklama",2,0,"active"
40,"KIRKLARELİ",1,"açıklama",2,0,"active"
41,"KIRŞEHİR",1,"açıklama",2,0,"active"
42,"KOCAELİ",1,"açıklama",2,0,"active"
43,"KONYA",1,"açıklama",2,0,"active"
44,"KÜTAHYA",1,"açıklama",2,0,"active"
45,"MALATYA",1,"açıklama",2,0,"active"
46,"MANİSA",1,"açıklama",2,0,"active"
47,"KAHRAMANMARAŞ",1,"açıklama",2,0,"active"
48,"MARDİN",1,"açıklama",2,0,"active"
49,"MUĞLA",1,"açıklama",2,0,"active"
50,"MUŞ",1,"açıklama",2,0,"active"
51,"NEVŞEHİR",1,"açıklama",2,0,"active"
52,"NİĞDE",1,"açıklama",2,0,"active"
53,"ORDU",1,"açıklama",2,0,"active"
54,"RİZE",1,"açıklama",2,0,"active"
55,"SAKARYA",1,"açıklama",2,0,"active"
56,"SAMSUN",1,"açıklama",2,0,"active"
57,"SİİRT",1,"açıklama",2,0,"active"
58,"SİNOP",1,"açıklama",2,0,"active"
59,"SİVAS",1,"açıklama",2,0,"active"
60,"TEKİRDAĞ",1,"açıklama",2,0,"active"
61,"TOKAT",1,"açıklama",2,0,"active"
62,"TRABZON",1,"açıklama",2,0,"active"
63,"TUNCELİ",1,"açıklama",2,0,"active"
64,"ŞANLIURFA",1,"açıklama",2,0,"active"
65,"UŞAK",1,"açıklama",2,0,"active"
66,"VAN",1,"açıklama",2,0,"active"
67,"YOZGAT",1,"açıklama",2,0,"active"
68,"ZONGULDAK",1,"açıklama",2,0,"active"
69,"AKSARAY",1,"açıklama",2,0,"active"
70,"BAYBURT",1,"açıklama",2,0,"active"
71,"KARAMAN",1,"açıklama",2,0,"active"
72,"KIRIKKALE",1,"açıklama",2,0,"active"
73,"BATMAN",1,"açıklama",2,0,"active"
74,"ŞIRNAK",1,"açıklama",2,0,"active"
75,"BARTIN",1,"açıklama",2,0,"active"
76,"ARDAHAN",1,"açıklama",2,0,"active"
77,"IĞDIR",1,"açıklama",2,0,"active"
78,"YALOVA",1,"açıklama",2,0,"active"
79,"KARABÜK",1,"açıklama",2,0,"active"
80,"KİLİS",1,"açıklama",2,0,"active"
81,"OSMANİYE",1,"açıklama",2,0,"active"
82,"DÜZCE",1,"açıklama",2,0,"active"
83,"19 MAYIS",56,"açıklama",3,1,"active"
84,"ABANA",38,"açıklama",3,1,"active"
85,"ACIGÖL",51,"açıklama",3,1,"active"
86,"ACIPAYAM",21,"açıklama",3,1,"active"
87,"ADAKLI",13,"açıklama",3,1,"active"
88,"ADALAR",35,"açıklama",3,1,"active"
89,"ADAPAZARI",55,"açıklama",3,1,"active"
90,"ADİLCEVAZ",14,"açıklama",3,1,"active"
91,"AFŞİN",47,"açıklama",3,1,"active"
92,"AĞAÇÖREN",69,"açıklama",3,1,"active"
93,"AĞIN",24,"açıklama",3,1,"active"
94,"AĞLASUN",16,"açıklama",3,1,"active"
95,"AĞLI",38,"açıklama",3,1,"active"
96,"AHIRLI",43,"açıklama",3,1,"active"
97,"AHLAT",14,"açıklama",3,1,"active"
98,"AHMETLİ",46,"açıklama",3,1,"active"
99,"AKÇAABAT",62,"açıklama",3,1,"active"
100,"AKÇADAĞ",45,"açıklama",3,1,"active"
101,"AKÇAKALE",64,"açıklama",3,1,"active"
102,"AKÇAKENT",41,"açıklama",3,1,"active"
103,"AKÇAKOCA",82,"açıklama",3,1,"active"
104,"AKDAĞMADENİ",67,"açıklama",3,1,"active"
105,"AKDENİZ",34,"açıklama",3,1,"active"
106,"AKHİSAR",46,"açıklama",3,1,"active"
107,"AKINCILAR",59,"açıklama",3,1,"active"
108,"AKKIŞLA",39,"açıklama",3,1,"active"
109,"AKKUŞ",53,"açıklama",3,1,"active"
110,"AKÖREN",43,"açıklama",3,1,"active"
111,"AKPINAR",41,"açıklama",3,1,"active"
112,"AKSEKİ",8,"açıklama",3,1,"active"
113,"AKSU",8,"açıklama",3,1,"active"
114,"AKSU",33,"açıklama",3,1,"active"
115,"AKŞEHİR",43,"açıklama",3,1,"active"
116,"AKYAKA",37,"açıklama",3,1,"active"
117,"AKYAZI",55,"açıklama",3,1,"active"
118,"AKYURT",7,"açıklama",3,1,"active"
119,"ALACA",20,"açıklama",3,1,"active"
120,"ALACAKAYA",24,"açıklama",3,1,"active"
121,"ALAÇAM",56,"açıklama",3,1,"active"
122,"ALADAĞ",2,"açıklama",3,1,"active"
123,"ALANYA",8,"açıklama",3,1,"active"
124,"ALAPLI",68,"açıklama",3,1,"active"
125,"ALAŞEHİR",46,"açıklama",3,1,"active"
126,"ALİAĞA",36,"açıklama",3,1,"active"
127,"ALMUS",61,"açıklama",3,1,"active"
128,"ALPU",27,"açıklama",3,1,"active"
129,"ALTIEYLÜL",11,"açıklama",3,1,"active"
130,"ALTINDAĞ",7,"açıklama",3,1,"active"
131,"ALTINEKİN",43,"açıklama",3,1,"active"
132,"ALTINORDU",53,"açıklama",3,1,"active"
133,"ALTINOVA",78,"açıklama",3,1,"active"
134,"ALTINÖZÜ",32,"açıklama",3,1,"active"
135,"ALTINTAŞ",44,"açıklama",3,1,"active"
136,"ALTINYAYLA",16,"açıklama",3,1,"active"
137,"ALTINYAYLA",59,"açıklama",3,1,"active"
138,"ALTUNHİSAR",52,"açıklama",3,1,"active"
139,"ALUCRA",29,"açıklama",3,1,"active"
140,"AMASRA",75,"açıklama",3,1,"active"
141,"ANAMUR",34,"açıklama",3,1,"active"
142,"ANDIRIN",47,"açıklama",3,1,"active"
143,"ANTAKYA",32,"açıklama",3,1,"active"
144,"ARABAN",28,"açıklama",3,1,"active"
145,"ARAÇ",38,"açıklama",3,1,"active"
146,"ARAKLI",62,"açıklama",3,1,"active"
147,"ARALIK",77,"açıklama",3,1,"active"
148,"ARAPGİR",45,"açıklama",3,1,"active"
149,"ARDANUÇ",9,"açıklama",3,1,"active"
150,"ARDEŞEN",54,"açıklama",3,1,"active"
151,"ARGUVAN",45,"açıklama",3,1,"active"
152,"ARHAVİ",9,"açıklama",3,1,"active"
153,"ARICAK",24,"açıklama",3,1,"active"
154,"ARİFİYE",55,"açıklama",3,1,"active"
155,"ARMUTLU",78,"açıklama",3,1,"active"
156,"ARNAVUTKÖY",35,"açıklama",3,1,"active"
157,"ARPAÇAY",37,"açıklama",3,1,"active"
158,"ARSİN",62,"açıklama",3,1,"active"
159,"ARSUZ",32,"açıklama",3,1,"active"
160,"ARTOVA",61,"açıklama",3,1,"active"
161,"ARTUKLU",48,"açıklama",3,1,"active"
162,"ASARCIK",56,"açıklama",3,1,"active"
163,"ASLANAPA",44,"açıklama",3,1,"active"
164,"AŞKALE",26,"açıklama",3,1,"active"
165,"ATABEY",33,"açıklama",3,1,"active"
166,"ATAKUM",56,"açıklama",3,1,"active"
167,"ATAŞEHİR",35,"açıklama",3,1,"active"
168,"ATKARACALAR",19,"açıklama",3,1,"active"
169,"AVANOS",51,"açıklama",3,1,"active"
170,"AVCILAR",35,"açıklama",3,1,"active"
171,"AYANCIK",58,"açıklama",3,1,"active"
172,"AYAŞ",7,"açıklama",3,1,"active"
173,"AYBASTI",53,"açıklama",3,1,"active"
174,"AYDINCIK",34,"açıklama",3,1,"active"
175,"AYDINCIK",67,"açıklama",3,1,"active"
176,"AYDINTEPE",70,"açıklama",3,1,"active"
177,"AYRANCI",71,"açıklama",3,1,"active"
178,"AYVACIK",18,"açıklama",3,1,"active"
179,"AYVACIK",56,"açıklama",3,1,"active"
180,"AYVALIK",11,"açıklama",3,1,"active"
181,"AZDAVAY",38,"açıklama",3,1,"active"
182,"AZİZİYE",26,"açıklama",3,1,"active"
183,"BABADAĞ",21,"açıklama",3,1,"active"
184,"BABAESKİ",40,"açıklama",3,1,"active"
185,"BAFRA",56,"açıklama",3,1,"active"
186,"BAĞCILAR",35,"açıklama",3,1,"active"
187,"BAĞLAR",22,"açıklama",3,1,"active"
188,"BAHÇE",81,"açıklama",3,1,"active"
189,"BAHÇELİEVLER",35,"açıklama",3,1,"active"
190,"BAHÇESARAY",66,"açıklama",3,1,"active"
191,"BAHŞİLİ",72,"açıklama",3,1,"active"
192,"BAKIRKÖY",35,"açıklama",3,1,"active"
193,"BAKLAN",21,"açıklama",3,1,"active"
194,"BALA",7,"açıklama",3,1,"active"
195,"BALÇOVA",36,"açıklama",3,1,"active"
196,"BALIŞEYH",72,"açıklama",3,1,"active"
197,"BALYA",11,"açıklama",3,1,"active"
198,"BANAZ",65,"açıklama",3,1,"active"
199,"BANDIRMA",11,"açıklama",3,1,"active"
200,"BASKİL",24,"açıklama",3,1,"active"
201,"BAŞAKŞEHİR",35,"açıklama",3,1,"active"
202,"BAŞÇİFTLİK",61,"açıklama",3,1,"active"
203,"BAŞİSKELE",42,"açıklama",3,1,"active"
204,"BAŞKALE",66,"açıklama",3,1,"active"
205,"BAŞMAKÇI",4,"açıklama",3,1,"active"
206,"BAŞYAYLA",71,"açıklama",3,1,"active"
207,"BATTALGAZİ",45,"açıklama",3,1,"active"
208,"BAYAT",4,"açıklama",3,1,"active"
209,"BAYAT",20,"açıklama",3,1,"active"
210,"BAYINDIR",36,"açıklama",3,1,"active"
211,"BAYKAN",57,"açıklama",3,1,"active"
212,"BAYRAKLI",36,"açıklama",3,1,"active"
213,"BAYRAMİÇ",18,"açıklama",3,1,"active"
214,"BAYRAMÖREN",19,"açıklama",3,1,"active"
215,"BAYRAMPAŞA",35,"açıklama",3,1,"active"
216,"BEKİLLİ",21,"açıklama",3,1,"active"
217,"BELEN",32,"açıklama",3,1,"active"
218,"BERGAMA",36,"açıklama",3,1,"active"
219,"BESNİ",3,"açıklama",3,1,"active"
220,"BEŞİKDÜZÜ",62,"açıklama",3,1,"active"
221,"BEŞİKTAŞ",35,"açıklama",3,1,"active"
222,"BEŞİRİ",73,"açıklama",3,1,"active"
223,"BEYAĞAÇ",21,"açıklama",3,1,"active"
224,"BEYDAĞ",36,"açıklama",3,1,"active"
225,"BEYKOZ",35,"açıklama",3,1,"active"
226,"BEYLİKDÜZÜ",35,"açıklama",3,1,"active"
227,"BEYLİKOVA",27,"açıklama",3,1,"active"
228,"BEYOĞLU",35,"açıklama",3,1,"active"
229,"BEYPAZARI",7,"açıklama",3,1,"active"
230,"BEYŞEHİR",43,"açıklama",3,1,"active"
231,"BEYTÜŞŞEBAP",74,"açıklama",3,1,"active"
232,"BİGA",18,"açıklama",3,1,"active"
233,"BİGADİÇ",11,"açıklama",3,1,"active"
234,"BİRECİK",64,"açıklama",3,1,"active"
235,"BİSMİL",22,"açıklama",3,1,"active"
236,"BODRUM",49,"açıklama",3,1,"active"
237,"BOĞAZKALE",20,"açıklama",3,1,"active"
238,"BOĞAZLIYAN",67,"açıklama",3,1,"active"
239,"BOLVADİN",4,"açıklama",3,1,"active"
240,"BOR",52,"açıklama",3,1,"active"
241,"BORÇKA",9,"açıklama",3,1,"active"
242,"BORNOVA",36,"açıklama",3,1,"active"
243,"BOYABAT",58,"açıklama",3,1,"active"
244,"BOZCAADA",18,"açıklama",3,1,"active"
245,"BOZDOĞAN",10,"açıklama",3,1,"active"
246,"BOZKIR",43,"açıklama",3,1,"active"
247,"BOZKURT",21,"açıklama",3,1,"active"
248,"BOZKURT",38,"açıklama",3,1,"active"
249,"BOZOVA",64,"açıklama",3,1,"active"
250,"BOZTEPE",41,"açıklama",3,1,"active"
251,"BOZÜYÜK",12,"açıklama",3,1,"active"
252,"BOZYAZI",34,"açıklama",3,1,"active"
253,"BUCA",36,"açıklama",3,1,"active"
254,"BUCAK",16,"açıklama",3,1,"active"
255,"BUHARKENT",10,"açıklama",3,1,"active"
256,"BULANCAK",29,"açıklama",3,1,"active"
257,"BULANIK",50,"açıklama",3,1,"active"
258,"BULDAN",21,"açıklama",3,1,"active"
259,"BURHANİYE",11,"açıklama",3,1,"active"
260,"BÜNYAN",39,"açıklama",3,1,"active"
261,"BÜYÜKÇEKMECE",35,"açıklama",3,1,"active"
262,"BÜYÜKORHAN",17,"açıklama",3,1,"active"
263,"CANİK",56,"açıklama",3,1,"active"
264,"CEYHAN",2,"açıklama",3,1,"active"
265,"CEYLANPINAR",64,"açıklama",3,1,"active"
266,"CİDE",38,"açıklama",3,1,"active"
267,"CİHANBEYLİ",43,"açıklama",3,1,"active"
268,"CİZRE",74,"açıklama",3,1,"active"
269,"CUMAYERİ",82,"açıklama",3,1,"active"
270,"ÇAĞLAYANCERİT",47,"açıklama",3,1,"active"
271,"ÇAL",21,"açıklama",3,1,"active"
272,"ÇALDIRAN",66,"açıklama",3,1,"active"
273,"ÇAMARDI",52,"açıklama",3,1,"active"
274,"ÇAMAŞ",53,"açıklama",3,1,"active"
275,"ÇAMELİ",21,"açıklama",3,1,"active"
276,"ÇAMLIDERE",7,"açıklama",3,1,"active"
277,"ÇAMLIHEMŞİN",54,"açıklama",3,1,"active"
278,"ÇAMLIYAYLA",34,"açıklama",3,1,"active"
279,"ÇAMOLUK",29,"açıklama",3,1,"active"
280,"ÇAN",18,"açıklama",3,1,"active"
281,"ÇANAKÇI",29,"açıklama",3,1,"active"
282,"ÇANDIR",67,"açıklama",3,1,"active"
283,"ÇANKAYA",7,"açıklama",3,1,"active"
284,"ÇARDAK",21,"açıklama",3,1,"active"
285,"ÇARŞAMBA",56,"açıklama",3,1,"active"
286,"ÇARŞIBAŞI",62,"açıklama",3,1,"active"
287,"ÇAT",26,"açıklama",3,1,"active"
288,"ÇATAK",66,"açıklama",3,1,"active"
289,"ÇATALCA",35,"açıklama",3,1,"active"
290,"ÇATALPINAR",53,"açıklama",3,1,"active"
291,"ÇATALZEYTİN",38,"açıklama",3,1,"active"
292,"ÇAVDARHİSAR",44,"açıklama",3,1,"active"
293,"ÇAVDIR",16,"açıklama",3,1,"active"
294,"ÇAY",4,"açıklama",3,1,"active"
295,"ÇAYBAŞI",53,"açıklama",3,1,"active"
296,"ÇAYCUMA",68,"açıklama",3,1,"active"
297,"ÇAYELİ",54,"açıklama",3,1,"active"
298,"ÇAYIRALAN",67,"açıklama",3,1,"active"
299,"ÇAYIRLI",25,"açıklama",3,1,"active"
300,"ÇAYIROVA",42,"açıklama",3,1,"active"
301,"ÇAYKARA",62,"açıklama",3,1,"active"
302,"ÇEKEREK",67,"açıklama",3,1,"active"
303,"ÇEKMEKÖY",35,"açıklama",3,1,"active"
304,"ÇELEBİ",72,"açıklama",3,1,"active"
305,"ÇELİKHAN",3,"açıklama",3,1,"active"
306,"ÇELTİK",43,"açıklama",3,1,"active"
307,"ÇELTİKÇİ",16,"açıklama",3,1,"active"
308,"ÇEMİŞGEZEK",63,"açıklama",3,1,"active"
309,"ÇERKEŞ",19,"açıklama",3,1,"active"
310,"ÇERKEZKÖY",60,"açıklama",3,1,"active"
311,"ÇERMİK",22,"açıklama",3,1,"active"
312,"ÇEŞME",36,"açıklama",3,1,"active"
313,"ÇILDIR",76,"açıklama",3,1,"active"
314,"ÇINAR",22,"açıklama",3,1,"active"
315,"ÇINARCIK",78,"açıklama",3,1,"active"
316,"ÇİÇEKDAĞI",41,"açıklama",3,1,"active"
317,"ÇİFTELER",27,"açıklama",3,1,"active"
318,"ÇİFTLİK",52,"açıklama",3,1,"active"
319,"ÇİFTLİKKÖY",78,"açıklama",3,1,"active"
320,"ÇİĞLİ",36,"açıklama",3,1,"active"
321,"ÇİLİMLİ",82,"açıklama",3,1,"active"
322,"ÇİNE",10,"açıklama",3,1,"active"
323,"ÇİVRİL",21,"açıklama",3,1,"active"
324,"ÇOBANLAR",4,"açıklama",3,1,"active"
325,"ÇORLU",60,"açıklama",3,1,"active"
326,"ÇUBUK",7,"açıklama",3,1,"active"
327,"ÇUKURCA",31,"açıklama",3,1,"active"
328,"ÇUKUROVA",2,"açıklama",3,1,"active"
329,"ÇUMRA",43,"açıklama",3,1,"active"
330,"ÇÜNGÜŞ",22,"açıklama",3,1,"active"
331,"DADAY",38,"açıklama",3,1,"active"
332,"DALAMAN",49,"açıklama",3,1,"active"
333,"DAMAL",76,"açıklama",3,1,"active"
334,"DARENDE",45,"açıklama",3,1,"active"
335,"DARGEÇİT",48,"açıklama",3,1,"active"
336,"DARICA",42,"açıklama",3,1,"active"
337,"DATÇA",49,"açıklama",3,1,"active"
338,"DAZKIRI",4,"açıklama",3,1,"active"
339,"DEFNE",32,"açıklama",3,1,"active"
340,"DELİCE",72,"açıklama",3,1,"active"
341,"DEMİRCİ",46,"açıklama",3,1,"active"
342,"DEMİRKÖY",40,"açıklama",3,1,"active"
343,"DEMİRÖZÜ",70,"açıklama",3,1,"active"
344,"DEMRE",8,"açıklama",3,1,"active"
345,"DERBENT",43,"açıklama",3,1,"active"
346,"DEREBUCAK",43,"açıklama",3,1,"active"
347,"DERELİ",29,"açıklama",3,1,"active"
348,"DEREPAZARI",54,"açıklama",3,1,"active"
349,"DERİK",48,"açıklama",3,1,"active"
350,"DERİNCE",42,"açıklama",3,1,"active"
351,"DERİNKUYU",51,"açıklama",3,1,"active"
352,"DERNEKPAZARI",62,"açıklama",3,1,"active"
353,"DEVELİ",39,"açıklama",3,1,"active"
354,"DEVREK",68,"açıklama",3,1,"active"
355,"DEVREKANİ",38,"açıklama",3,1,"active"
356,"DİCLE",22,"açıklama",3,1,"active"
357,"DİDİM",10,"açıklama",3,1,"active"
358,"DİGOR",37,"açıklama",3,1,"active"
359,"DİKİLİ",36,"açıklama",3,1,"active"
360,"DİKMEN",58,"açıklama",3,1,"active"
361,"DİLOVASI",42,"açıklama",3,1,"active"
362,"DİNAR",4,"açıklama",3,1,"active"
363,"DİVRİĞİ",59,"açıklama",3,1,"active"
364,"DİYADİN",5,"açıklama",3,1,"active"
365,"DODURGA",20,"açıklama",3,1,"active"
366,"DOĞANHİSAR",43,"açıklama",3,1,"active"
367,"DOĞANKENT",29,"açıklama",3,1,"active"
368,"DOĞANŞAR",59,"açıklama",3,1,"active"
369,"DOĞANŞEHİR",45,"açıklama",3,1,"active"
370,"DOĞANYOL",45,"açıklama",3,1,"active"
371,"DOĞANYURT",38,"açıklama",3,1,"active"
372,"DOĞUBAYAZIT",5,"açıklama",3,1,"active"
373,"DOMANİÇ",44,"açıklama",3,1,"active"
374,"DÖRTDİVAN",15,"açıklama",3,1,"active"
375,"DÖRTYOL",32,"açıklama",3,1,"active"
376,"DÖŞEMEALTI",8,"açıklama",3,1,"active"
377,"DULKADİROĞLU",47,"açıklama",3,1,"active"
378,"DUMLUPINAR",44,"açıklama",3,1,"active"
379,"DURAĞAN",58,"açıklama",3,1,"active"
380,"DURSUNBEY",11,"açıklama",3,1,"active"
381,"DÜZİÇİ",81,"açıklama",3,1,"active"
382,"DÜZKÖY",62,"açıklama",3,1,"active"
383,"ECEABAT",18,"açıklama",3,1,"active"
384,"EDREMİT",11,"açıklama",3,1,"active"
385,"EDREMİT",66,"açıklama",3,1,"active"
386,"EFELER",10,"açıklama",3,1,"active"
387,"EFLANİ",79,"açıklama",3,1,"active"
388,"EĞİL",22,"açıklama",3,1,"active"
389,"EĞİRDİR",33,"açıklama",3,1,"active"
390,"EKİNÖZÜ",47,"açıklama",3,1,"active"
391,"ELBEYLİ",80,"açıklama",3,1,"active"
392,"ELBİSTAN",47,"açıklama",3,1,"active"
393,"ELDİVAN",19,"açıklama",3,1,"active"
394,"ELEŞKİRT",5,"açıklama",3,1,"active"
395,"ELMADAĞ",7,"açıklama",3,1,"active"
396,"ELMALI",8,"açıklama",3,1,"active"
397,"EMET",44,"açıklama",3,1,"active"
398,"EMİRDAĞ",4,"açıklama",3,1,"active"
399,"EMİRGAZİ",43,"açıklama",3,1,"active"
400,"ENEZ",23,"açıklama",3,1,"active"
401,"ERBAA",61,"açıklama",3,1,"active"
402,"ERCİŞ",66,"açıklama",3,1,"active"
403,"ERDEK",11,"açıklama",3,1,"active"
404,"ERDEMLİ",34,"açıklama",3,1,"active"
405,"EREĞLİ",43,"açıklama",3,1,"active"
406,"EREĞLİ",68,"açıklama",3,1,"active"
407,"ERENLER",55,"açıklama",3,1,"active"
408,"ERFELEK",58,"açıklama",3,1,"active"
409,"ERGANİ",22,"açıklama",3,1,"active"
410,"ERGENE",60,"açıklama",3,1,"active"
411,"ERMENEK",71,"açıklama",3,1,"active"
412,"ERUH",57,"açıklama",3,1,"active"
413,"ERZİN",32,"açıklama",3,1,"active"
414,"ESENLER",35,"açıklama",3,1,"active"
415,"ESENYURT",35,"açıklama",3,1,"active"
416,"ESKİL",69,"açıklama",3,1,"active"
417,"ESKİPAZAR",79,"açıklama",3,1,"active"
418,"ESPİYE",29,"açıklama",3,1,"active"
419,"EŞME",65,"açıklama",3,1,"active"
420,"ETİMESGUT",7,"açıklama",3,1,"active"
421,"EVCİLER",4,"açıklama",3,1,"active"
422,"EVREN",7,"açıklama",3,1,"active"
423,"EYNESİL",29,"açıklama",3,1,"active"
424,"EYÜP",35,"açıklama",3,1,"active"
425,"EYYÜBİYE",64,"açıklama",3,1,"active"
426,"EZİNE",18,"açıklama",3,1,"active"
427,"FATİH",35,"açıklama",3,1,"active"
428,"FATSA",53,"açıklama",3,1,"active"
429,"FEKE",2,"açıklama",3,1,"active"
430,"FELAHİYE",39,"açıklama",3,1,"active"
431,"FERİZLİ",55,"açıklama",3,1,"active"
432,"FETHİYE",49,"açıklama",3,1,"active"
433,"FINDIKLI",54,"açıklama",3,1,"active"
434,"FİNİKE",8,"açıklama",3,1,"active"
435,"FOÇA",36,"açıklama",3,1,"active"
436,"GAZİEMİR",36,"açıklama",3,1,"active"
437,"GAZİOSMANPAŞA",35,"açıklama",3,1,"active"
438,"GAZİPAŞA",8,"açıklama",3,1,"active"
439,"GEBZE",42,"açıklama",3,1,"active"
440,"GEDİZ",44,"açıklama",3,1,"active"
441,"GELENDOST",33,"açıklama",3,1,"active"
442,"GELİBOLU",18,"açıklama",3,1,"active"
443,"GEMEREK",59,"açıklama",3,1,"active"
444,"GEMLİK",17,"açıklama",3,1,"active"
445,"GENÇ",13,"açıklama",3,1,"active"
446,"GERCÜŞ",73,"açıklama",3,1,"active"
447,"GEREDE",15,"açıklama",3,1,"active"
448,"GERGER",3,"açıklama",3,1,"active"
449,"GERMENCİK",10,"açıklama",3,1,"active"
450,"GERZE",58,"açıklama",3,1,"active"
451,"GEVAŞ",66,"açıklama",3,1,"active"
452,"GEYVE",55,"açıklama",3,1,"active"
453,"GÖKÇEADA",18,"açıklama",3,1,"active"
454,"GÖKÇEBEY",68,"açıklama",3,1,"active"
455,"GÖKSUN",47,"açıklama",3,1,"active"
456,"GÖLBAŞI",3,"açıklama",3,1,"active"
457,"GÖLBAŞI",7,"açıklama",3,1,"active"
458,"GÖLCÜK",42,"açıklama",3,1,"active"
459,"GÖLE",76,"açıklama",3,1,"active"
460,"GÖLHİSAR",16,"açıklama",3,1,"active"
461,"GÖLKÖY",53,"açıklama",3,1,"active"
462,"GÖLMARMARA",46,"açıklama",3,1,"active"
463,"GÖLOVA",59,"açıklama",3,1,"active"
464,"GÖLPAZARI",12,"açıklama",3,1,"active"
465,"GÖLYAKA",82,"açıklama",3,1,"active"
466,"GÖMEÇ",11,"açıklama",3,1,"active"
467,"GÖNEN",11,"açıklama",3,1,"active"
468,"GÖNEN",33,"açıklama",3,1,"active"
469,"GÖRDES",46,"açıklama",3,1,"active"
470,"GÖRELE",29,"açıklama",3,1,"active"
471,"GÖYNÜCEK",6,"açıklama",3,1,"active"
472,"GÖYNÜK",15,"açıklama",3,1,"active"
473,"GÜCE",29,"açıklama",3,1,"active"
474,"GÜÇLÜKONAK",74,"açıklama",3,1,"active"
475,"GÜDÜL",7,"açıklama",3,1,"active"
476,"GÜLAĞAÇ",69,"açıklama",3,1,"active"
477,"GÜLNAR",34,"açıklama",3,1,"active"
478,"GÜLŞEHİR",51,"açıklama",3,1,"active"
479,"GÜLYALI",53,"açıklama",3,1,"active"
480,"GÜMÜŞHACIKÖY",6,"açıklama",3,1,"active"
481,"GÜMÜŞOVA",82,"açıklama",3,1,"active"
482,"GÜNDOĞMUŞ",8,"açıklama",3,1,"active"
483,"GÜNEY",21,"açıklama",3,1,"active"
484,"GÜNEYSINIR",43,"açıklama",3,1,"active"
485,"GÜNEYSU",54,"açıklama",3,1,"active"
486,"GÜNGÖREN",35,"açıklama",3,1,"active"
487,"GÜNYÜZÜ",27,"açıklama",3,1,"active"
488,"GÜRGENTEPE",53,"açıklama",3,1,"active"
489,"GÜROYMAK",14,"açıklama",3,1,"active"
490,"GÜRPINAR",66,"açıklama",3,1,"active"
491,"GÜRSU",17,"açıklama",3,1,"active"
492,"GÜRÜN",59,"açıklama",3,1,"active"
493,"GÜZELBAHÇE",36,"açıklama",3,1,"active"
494,"GÜZELYURT",69,"açıklama",3,1,"active"
495,"HACIBEKTAŞ",51,"açıklama",3,1,"active"
496,"HACILAR",39,"açıklama",3,1,"active"
497,"HADİM",43,"açıklama",3,1,"active"
498,"HAFİK",59,"açıklama",3,1,"active"
499,"HALFETİ",64,"açıklama",3,1,"active"
500,"HALİLİYE",64,"açıklama",3,1,"active"
501,"HALKAPINAR",43,"açıklama",3,1,"active"
502,"HAMAMÖZÜ",6,"açıklama",3,1,"active"
503,"HAMUR",5,"açıklama",3,1,"active"
504,"HAN",27,"açıklama",3,1,"active"
505,"HANAK",76,"açıklama",3,1,"active"
506,"HANİ",22,"açıklama",3,1,"active"
507,"HANÖNÜ",38,"açıklama",3,1,"active"
508,"HARMANCIK",17,"açıklama",3,1,"active"
509,"HARRAN",64,"açıklama",3,1,"active"
510,"HASANBEYLİ",81,"açıklama",3,1,"active"
511,"HASANKEYF",73,"açıklama",3,1,"active"
512,"HASKÖY",50,"açıklama",3,1,"active"
513,"HASSA",32,"açıklama",3,1,"active"
514,"HAVRAN",11,"açıklama",3,1,"active"
515,"HAVSA",23,"açıklama",3,1,"active"
516,"HAVZA",56,"açıklama",3,1,"active"
517,"HAYMANA",7,"açıklama",3,1,"active"
518,"HAYRABOLU",60,"açıklama",3,1,"active"
519,"HAYRAT",62,"açıklama",3,1,"active"
520,"HAZRO",22,"açıklama",3,1,"active"
521,"HEKİMHAN",45,"açıklama",3,1,"active"
522,"HEMŞİN",54,"açıklama",3,1,"active"
523,"HENDEK",55,"açıklama",3,1,"active"
524,"HINIS",26,"açıklama",3,1,"active"
525,"HİLVAN",64,"açıklama",3,1,"active"
526,"HİSARCIK",44,"açıklama",3,1,"active"
527,"HİZAN",14,"açıklama",3,1,"active"
528,"HOCALAR",4,"açıklama",3,1,"active"
529,"HONAZ",21,"açıklama",3,1,"active"
530,"HOPA",9,"açıklama",3,1,"active"
531,"HORASAN",26,"açıklama",3,1,"active"
532,"HOZAT",63,"açıklama",3,1,"active"
533,"HÜYÜK",43,"açıklama",3,1,"active"
534,"ILGAZ",19,"açıklama",3,1,"active"
535,"ILGIN",43,"açıklama",3,1,"active"
536,"İBRADI",8,"açıklama",3,1,"active"
537,"İDİL",74,"açıklama",3,1,"active"
538,"İHSANGAZİ",38,"açıklama",3,1,"active"
539,"İHSANİYE",4,"açıklama",3,1,"active"
540,"İKİZCE",53,"açıklama",3,1,"active"
541,"İKİZDERE",54,"açıklama",3,1,"active"
542,"İLİÇ",25,"açıklama",3,1,"active"
543,"İLKADIM",56,"açıklama",3,1,"active"
544,"İMAMOĞLU",2,"açıklama",3,1,"active"
545,"İMRANLI",59,"açıklama",3,1,"active"
546,"İNCESU",39,"açıklama",3,1,"active"
547,"İNCİRLİOVA",10,"açıklama",3,1,"active"
548,"İNEBOLU",38,"açıklama",3,1,"active"
549,"İNEGÖL",17,"açıklama",3,1,"active"
550,"İNHİSAR",12,"açıklama",3,1,"active"
551,"İNÖNÜ",27,"açıklama",3,1,"active"
552,"İPEKYOLU",66,"açıklama",3,1,"active"
553,"İPSALA",23,"açıklama",3,1,"active"
554,"İSCEHİSAR",4,"açıklama",3,1,"active"
555,"İSKENDERUN",32,"açıklama",3,1,"active"
556,"İSKİLİP",20,"açıklama",3,1,"active"
557,"İSLAHİYE",28,"açıklama",3,1,"active"
558,"İSPİR",26,"açıklama",3,1,"active"
559,"İVRİNDİ",11,"açıklama",3,1,"active"
560,"İYİDERE",54,"açıklama",3,1,"active"
561,"İZMİT",42,"açıklama",3,1,"active"
562,"İZNİK",17,"açıklama",3,1,"active"
563,"KABADÜZ",53,"açıklama",3,1,"active"
564,"KABATAŞ",53,"açıklama",3,1,"active"
565,"KADIKÖY",35,"açıklama",3,1,"active"
566,"KADINHANI",43,"açıklama",3,1,"active"
567,"KADIŞEHRİ",67,"açıklama",3,1,"active"
568,"KADİRLİ",81,"açıklama",3,1,"active"
569,"KAĞITHANE",35,"açıklama",3,1,"active"
570,"KAĞIZMAN",37,"açıklama",3,1,"active"
571,"KAHRAMANKAZAN",7,"açıklama",3,1,"active"
572,"KAHTA",3,"açıklama",3,1,"active"
573,"KALE",21,"açıklama",3,1,"active"
574,"KALE",45,"açıklama",3,1,"active"
575,"KALECİK",7,"açıklama",3,1,"active"
576,"KALKANDERE",54,"açıklama",3,1,"active"
577,"KAMAN",41,"açıklama",3,1,"active"
578,"KANDIRA",42,"açıklama",3,1,"active"
579,"KANGAL",59,"açıklama",3,1,"active"
580,"KAPAKLI",60,"açıklama",3,1,"active"
581,"KARABAĞLAR",36,"açıklama",3,1,"active"
582,"KARABURUN",36,"açıklama",3,1,"active"
583,"KARACABEY",17,"açıklama",3,1,"active"
584,"KARACASU",10,"açıklama",3,1,"active"
585,"KARAÇOBAN",26,"açıklama",3,1,"active"
586,"KARAHALLI",65,"açıklama",3,1,"active"
587,"KARAİSALI",2,"açıklama",3,1,"active"
588,"KARAKEÇİLİ",72,"açıklama",3,1,"active"
589,"KARAKOÇAN",24,"açıklama",3,1,"active"
590,"KARAKOYUNLU",77,"açıklama",3,1,"active"
591,"KARAKÖPRÜ",64,"açıklama",3,1,"active"
592,"KARAMANLI",16,"açıklama",3,1,"active"
593,"KARAMÜRSEL",42,"açıklama",3,1,"active"
594,"KARAPINAR",43,"açıklama",3,1,"active"
595,"KARAPÜRÇEK",55,"açıklama",3,1,"active"
596,"KARASU",55,"açıklama",3,1,"active"
597,"KARATAŞ",2,"açıklama",3,1,"active"
598,"KARATAY",43,"açıklama",3,1,"active"
599,"KARAYAZI",26,"açıklama",3,1,"active"
600,"KARESİ",11,"açıklama",3,1,"active"
601,"KARGI",20,"açıklama",3,1,"active"
602,"KARKAMIŞ",28,"açıklama",3,1,"active"
603,"KARLIOVA",13,"açıklama",3,1,"active"
604,"KARPUZLU",10,"açıklama",3,1,"active"
605,"KARŞIYAKA",36,"açıklama",3,1,"active"
606,"KARTAL",35,"açıklama",3,1,"active"
607,"KARTEPE",42,"açıklama",3,1,"active"
608,"KAŞ",8,"açıklama",3,1,"active"
609,"KAVAK",56,"açıklama",3,1,"active"
610,"KAVAKLIDERE",49,"açıklama",3,1,"active"
611,"KAYAPINAR",22,"açıklama",3,1,"active"
612,"KAYNARCA",55,"açıklama",3,1,"active"
613,"KAYNAŞLI",82,"açıklama",3,1,"active"
614,"KAZIMKARABEKİR",71,"açıklama",3,1,"active"
615,"KEBAN",24,"açıklama",3,1,"active"
616,"KEÇİBORLU",33,"açıklama",3,1,"active"
617,"KEÇİÖREN",7,"açıklama",3,1,"active"
618,"KELES",17,"açıklama",3,1,"active"
619,"KELKİT",30,"açıklama",3,1,"active"
620,"KEMAH",25,"açıklama",3,1,"active"
621,"KEMALİYE",25,"açıklama",3,1,"active"
622,"KEMALPAŞA",36,"açıklama",3,1,"active"
623,"KEMER",8,"açıklama",3,1,"active"
624,"KEMER",16,"açıklama",3,1,"active"
625,"KEPEZ",8,"açıklama",3,1,"active"
626,"KEPSUT",11,"açıklama",3,1,"active"
627,"KESKİN",72,"açıklama",3,1,"active"
628,"KESTEL",17,"açıklama",3,1,"active"
629,"KEŞAN",23,"açıklama",3,1,"active"
630,"KEŞAP",29,"açıklama",3,1,"active"
631,"KIBRISCIK",15,"açıklama",3,1,"active"
632,"KINIK",36,"açıklama",3,1,"active"
633,"KIRIKHAN",32,"açıklama",3,1,"active"
634,"KIRKAĞAÇ",46,"açıklama",3,1,"active"
635,"KIZILCAHAMAM",7,"açıklama",3,1,"active"
636,"KIZILIRMAK",19,"açıklama",3,1,"active"
637,"KIZILÖREN",4,"açıklama",3,1,"active"
638,"KIZILTEPE",48,"açıklama",3,1,"active"
639,"KİĞI",13,"açıklama",3,1,"active"
640,"KİLİMLİ",68,"açıklama",3,1,"active"
641,"KİRAZ",36,"açıklama",3,1,"active"
642,"KOCAALİ",55,"açıklama",3,1,"active"
643,"KOCAKÖY",22,"açıklama",3,1,"active"
644,"KOCASİNAN",39,"açıklama",3,1,"active"
645,"KOÇARLI",10,"açıklama",3,1,"active"
646,"KOFÇAZ",40,"açıklama",3,1,"active"
647,"KONAK",36,"açıklama",3,1,"active"
648,"KONYAALTI",8,"açıklama",3,1,"active"
649,"KORGAN",53,"açıklama",3,1,"active"
650,"KORGUN",19,"açıklama",3,1,"active"
651,"KORKUT",50,"açıklama",3,1,"active"
652,"KORKUTELİ",8,"açıklama",3,1,"active"
653,"KOVANCILAR",24,"açıklama",3,1,"active"
654,"KOYULHİSAR",59,"açıklama",3,1,"active"
655,"KOZAKLI",51,"açıklama",3,1,"active"
656,"KOZAN",2,"açıklama",3,1,"active"
657,"KOZLU",68,"açıklama",3,1,"active"
658,"KOZLUK",73,"açıklama",3,1,"active"
659,"KÖPRÜBAŞI",46,"açıklama",3,1,"active"
660,"KÖPRÜBAŞI",62,"açıklama",3,1,"active"
661,"KÖPRÜKÖY",26,"açıklama",3,1,"active"
662,"KÖRFEZ",42,"açıklama",3,1,"active"
663,"KÖSE",30,"açıklama",3,1,"active"
664,"KÖŞK",10,"açıklama",3,1,"active"
665,"KÖYCEĞİZ",49,"açıklama",3,1,"active"
666,"KULA",46,"açıklama",3,1,"active"
667,"KULP",22,"açıklama",3,1,"active"
668,"KULU",43,"açıklama",3,1,"active"
669,"KULUNCAK",45,"açıklama",3,1,"active"
670,"KUMLU",32,"açıklama",3,1,"active"
671,"KUMLUCA",8,"açıklama",3,1,"active"
672,"KUMRU",53,"açıklama",3,1,"active"
673,"KURŞUNLU",19,"açıklama",3,1,"active"
674,"KURTALAN",57,"açıklama",3,1,"active"
675,"KURUCAŞİLE",75,"açıklama",3,1,"active"
676,"KUŞADASI",10,"açıklama",3,1,"active"
677,"KUYUCAK",10,"açıklama",3,1,"active"
678,"KÜÇÜKÇEKMECE",35,"açıklama",3,1,"active"
679,"KÜRE",38,"açıklama",3,1,"active"
680,"KÜRTÜN",30,"açıklama",3,1,"active"
681,"LAÇİN",20,"açıklama",3,1,"active"
682,"LADİK",56,"açıklama",3,1,"active"
683,"LALAPAŞA",23,"açıklama",3,1,"active"
684,"LAPSEKİ",18,"açıklama",3,1,"active"
685,"LİCE",22,"açıklama",3,1,"active"
686,"LÜLEBURGAZ",40,"açıklama",3,1,"active"
687,"MAÇKA",62,"açıklama",3,1,"active"
688,"MADEN",24,"açıklama",3,1,"active"
689,"MAHMUDİYE",27,"açıklama",3,1,"active"
690,"MALAZGİRT",50,"açıklama",3,1,"active"
691,"MALKARA",60,"açıklama",3,1,"active"
692,"MALTEPE",35,"açıklama",3,1,"active"
693,"MAMAK",7,"açıklama",3,1,"active"
694,"MANAVGAT",8,"açıklama",3,1,"active"
695,"MANYAS",11,"açıklama",3,1,"active"
696,"MARMARA",11,"açıklama",3,1,"active"
697,"MARMARAEREĞLİSİ",60,"açıklama",3,1,"active"
698,"MARMARİS",49,"açıklama",3,1,"active"
699,"MAZGİRT",63,"açıklama",3,1,"active"
700,"MAZIDAĞI",48,"açıklama",3,1,"active"
701,"MECİTÖZÜ",20,"açıklama",3,1,"active"
702,"MELİKGAZİ",39,"açıklama",3,1,"active"
703,"MENDERES",36,"açıklama",3,1,"active"
704,"MENEMEN",36,"açıklama",3,1,"active"
705,"MENGEN",15,"açıklama",3,1,"active"
706,"MENTEŞE",49,"açıklama",3,1,"active"
707,"MERAM",43,"açıklama",3,1,"active"
708,"MERİÇ",23,"açıklama",3,1,"active"
709,"MERKEZ",3,"açıklama",3,1,"active"
710,"MERKEZ",4,"açıklama",3,1,"active"
711,"MERKEZ",5,"açıklama",3,1,"active"
712,"MERKEZ",6,"açıklama",3,1,"active"
713,"MERKEZ",9,"açıklama",3,1,"active"
714,"MERKEZ",12,"açıklama",3,1,"active"
715,"MERKEZ",13,"açıklama",3,1,"active"
716,"MERKEZ",14,"açıklama",3,1,"active"
717,"MERKEZ",15,"açıklama",3,1,"active"
718,"MERKEZ",16,"açıklama",3,1,"active"
719,"MERKEZ",18,"açıklama",3,1,"active"
720,"MERKEZ",19,"açıklama",3,1,"active"
721,"MERKEZ",20,"açıklama",3,1,"active"
722,"MERKEZ",23,"açıklama",3,1,"active"
723,"MERKEZ",24,"açıklama",3,1,"active"
724,"MERKEZ",25,"açıklama",3,1,"active"
725,"MERKEZ",29,"açıklama",3,1,"active"
726,"MERKEZ",30,"açıklama",3,1,"active"
727,"MERKEZ",31,"açıklama",3,1,"active"
728,"MERKEZ",33,"açıklama",3,1,"active"
729,"MERKEZ",37,"açıklama",3,1,"active"
730,"MERKEZ",38,"açıklama",3,1,"active"
731,"MERKEZ",40,"açıklama",3,1,"active"
732,"MERKEZ",41,"açıklama",3,1,"active"
733,"MERKEZ",44,"açıklama",3,1,"active"
734,"MERKEZ",50,"açıklama",3,1,"active"
735,"MERKEZ",51,"açıklama",3,1,"active"
736,"MERKEZ",52,"açıklama",3,1,"active"
737,"MERKEZ",54,"açıklama",3,1,"active"
738,"MERKEZ",57,"açıklama",3,1,"active"
739,"MERKEZ",58,"açıklama",3,1,"active"
740,"MERKEZ",59,"açıklama",3,1,"active"
741,"MERKEZ",61,"açıklama",3,1,"active"
742,"MERKEZ",63,"açıklama",3,1,"active"
743,"MERKEZ",65,"açıklama",3,1,"active"
744,"MERKEZ",67,"açıklama",3,1,"active"
745,"MERKEZ",68,"açıklama",3,1,"active"
746,"MERKEZ",69,"açıklama",3,1,"active"
747,"MERKEZ",70,"açıklama",3,1,"active"
748,"MERKEZ",71,"açıklama",3,1,"active"
749,"MERKEZ",72,"açıklama",3,1,"active"
750,"MERKEZ",73,"açıklama",3,1,"active"
751,"MERKEZ",74,"açıklama",3,1,"active"
752,"MERKEZ",75,"açıklama",3,1,"active"
753,"MERKEZ",76,"açıklama",3,1,"active"
754,"MERKEZ",77,"açıklama",3,1,"active"
755,"MERKEZ",78,"açıklama",3,1,"active"
756,"MERKEZ",79,"açıklama",3,1,"active"
757,"MERKEZ",80,"açıklama",3,1,"active"
758,"MERKEZ",81,"açıklama",3,1,"active"
759,"MERKEZ",82,"açıklama",3,1,"active"
760,"MERKEZEFENDİ",21,"açıklama",3,1,"active"
761,"MERZİFON",6,"açıklama",3,1,"active"
762,"MESUDİYE",53,"açıklama",3,1,"active"
763,"MEZİTLİ",34,"açıklama",3,1,"active"
764,"MİDYAT",48,"açıklama",3,1,"active"
765,"MİHALGAZİ",27,"açıklama",3,1,"active"
766,"MİHALIÇÇIK",27,"açıklama",3,1,"active"
767,"MİLAS",49,"açıklama",3,1,"active"
768,"MUCUR",41,"açıklama",3,1,"active"
769,"MUDANYA",17,"açıklama",3,1,"active"
770,"MUDURNU",15,"açıklama",3,1,"active"
771,"MURADİYE",66,"açıklama",3,1,"active"
772,"MURATLI",60,"açıklama",3,1,"active"
773,"MURATPAŞA",8,"açıklama",3,1,"active"
774,"MURGUL",9,"açıklama",3,1,"active"
775,"MUSABEYLİ",80,"açıklama",3,1,"active"
776,"MUSTAFAKEMALPAŞA",17,"açıklama",3,1,"active"
777,"MUT",34,"açıklama",3,1,"active"
778,"MUTKİ",14,"açıklama",3,1,"active"
779,"NALLIHAN",7,"açıklama",3,1,"active"
780,"NARLIDERE",36,"açıklama",3,1,"active"
781,"NARMAN",26,"açıklama",3,1,"active"
782,"NAZIMİYE",63,"açıklama",3,1,"active"
783,"NAZİLLİ",10,"açıklama",3,1,"active"
784,"NİKSAR",61,"açıklama",3,1,"active"
785,"NİLÜFER",17,"açıklama",3,1,"active"
786,"NİZİP",28,"açıklama",3,1,"active"
787,"NURDAĞI",28,"açıklama",3,1,"active"
788,"NURHAK",47,"açıklama",3,1,"active"
789,"NUSAYBİN",48,"açıklama",3,1,"active"
790,"ODUNPAZARI",27,"açıklama",3,1,"active"
791,"OF",62,"açıklama",3,1,"active"
792,"OĞUZELİ",28,"açıklama",3,1,"active"
793,"OĞUZLAR",20,"açıklama",3,1,"active"
794,"OLTU",26,"açıklama",3,1,"active"
795,"OLUR",26,"açıklama",3,1,"active"
796,"ONİKİŞUBAT",47,"açıklama",3,1,"active"
797,"ORHANELİ",17,"açıklama",3,1,"active"
798,"ORHANGAZİ",17,"açıklama",3,1,"active"
799,"ORTA",19,"açıklama",3,1,"active"
800,"ORTACA",49,"açıklama",3,1,"active"
801,"ORTAHİSAR",62,"açıklama",3,1,"active"
802,"ORTAKÖY",20,"açıklama",3,1,"active"
803,"ORTAKÖY",69,"açıklama",3,1,"active"
804,"OSMANCIK",20,"açıklama",3,1,"active"
805,"OSMANELİ",12,"açıklama",3,1,"active"
806,"OSMANGAZİ",17,"açıklama",3,1,"active"
807,"OTLUKBELİ",25,"açıklama",3,1,"active"
808,"OVACIK",63,"açıklama",3,1,"active"
809,"OVACIK",79,"açıklama",3,1,"active"
810,"ÖDEMİŞ",36,"açıklama",3,1,"active"
811,"ÖMERLİ",48,"açıklama",3,1,"active"
812,"ÖZALP",66,"açıklama",3,1,"active"
813,"ÖZVATAN",39,"açıklama",3,1,"active"
814,"PALANDÖKEN",26,"açıklama",3,1,"active"
815,"PALU",24,"açıklama",3,1,"active"
816,"PAMUKKALE",21,"açıklama",3,1,"active"
817,"PAMUKOVA",55,"açıklama",3,1,"active"
818,"PASİNLER",26,"açıklama",3,1,"active"
819,"PATNOS",5,"açıklama",3,1,"active"
820,"PAYAS",32,"açıklama",3,1,"active"
821,"PAZAR",54,"açıklama",3,1,"active"
822,"PAZAR",61,"açıklama",3,1,"active"
823,"PAZARCIK",47,"açıklama",3,1,"active"
824,"PAZARLAR",44,"açıklama",3,1,"active"
825,"PAZARYERİ",12,"açıklama",3,1,"active"
826,"PAZARYOLU",26,"açıklama",3,1,"active"
827,"PEHLİVANKÖY",40,"açıklama",3,1,"active"
828,"PENDİK",35,"açıklama",3,1,"active"
829,"PERŞEMBE",53,"açıklama",3,1,"active"
830,"PERTEK",63,"açıklama",3,1,"active"
831,"PERVARİ",57,"açıklama",3,1,"active"
832,"PINARBAŞI",38,"açıklama",3,1,"active"
833,"PINARBAŞI",39,"açıklama",3,1,"active"
834,"PINARHİSAR",40,"açıklama",3,1,"active"
835,"PİRAZİZ",29,"açıklama",3,1,"active"
836,"POLATELİ",80,"açıklama",3,1,"active"
837,"POLATLI",7,"açıklama",3,1,"active"
838,"POSOF",76,"açıklama",3,1,"active"
839,"POZANTI",2,"açıklama",3,1,"active"
840,"PURSAKLAR",7,"açıklama",3,1,"active"
841,"PÜLÜMÜR",63,"açıklama",3,1,"active"
842,"PÜTÜRGE",45,"açıklama",3,1,"active"
843,"REFAHİYE",25,"açıklama",3,1,"active"
844,"REŞADİYE",61,"açıklama",3,1,"active"
845,"REYHANLI",32,"açıklama",3,1,"active"
846,"SAFRANBOLU",79,"açıklama",3,1,"active"
847,"SAİMBEYLİ",2,"açıklama",3,1,"active"
848,"SALIPAZARI",56,"açıklama",3,1,"active"
849,"SALİHLİ",46,"açıklama",3,1,"active"
850,"SAMANDAĞ",32,"açıklama",3,1,"active"
851,"SAMSAT",3,"açıklama",3,1,"active"
852,"SANCAKTEPE",35,"açıklama",3,1,"active"
853,"SANDIKLI",4,"açıklama",3,1,"active"
854,"SAPANCA",55,"açıklama",3,1,"active"
855,"SARAY",60,"açıklama",3,1,"active"
856,"SARAY",66,"açıklama",3,1,"active"
857,"SARAYDÜZÜ",58,"açıklama",3,1,"active"
858,"SARAYKENT",67,"açıklama",3,1,"active"
859,"SARAYKÖY",21,"açıklama",3,1,"active"
860,"SARAYÖNÜ",43,"açıklama",3,1,"active"
861,"SARICAKAYA",27,"açıklama",3,1,"active"
862,"SARIÇAM",2,"açıklama",3,1,"active"
863,"SARIGÖL",46,"açıklama",3,1,"active"
864,"SARIKAMIŞ",37,"açıklama",3,1,"active"
865,"SARIKAYA",67,"açıklama",3,1,"active"
866,"SARIOĞLAN",39,"açıklama",3,1,"active"
867,"SARIVELİLER",71,"açıklama",3,1,"active"
868,"SARIYAHŞİ",69,"açıklama",3,1,"active"
869,"SARIYER",35,"açıklama",3,1,"active"
870,"SARIZ",39,"açıklama",3,1,"active"
871,"SARUHANLI",46,"açıklama",3,1,"active"
872,"SASON",73,"açıklama",3,1,"active"
873,"SAVAŞTEPE",11,"açıklama",3,1,"active"
874,"SAVUR",48,"açıklama",3,1,"active"
875,"SEBEN",15,"açıklama",3,1,"active"
876,"SEFERİHİSAR",36,"açıklama",3,1,"active"
877,"SELÇUK",36,"açıklama",3,1,"active"
878,"SELÇUKLU",43,"açıklama",3,1,"active"
879,"SELENDİ",46,"açıklama",3,1,"active"
880,"SELİM",37,"açıklama",3,1,"active"
881,"SENİRKENT",33,"açıklama",3,1,"active"
882,"SERDİVAN",55,"açıklama",3,1,"active"
883,"SERİK",8,"açıklama",3,1,"active"
884,"SERİNHİSAR",21,"açıklama",3,1,"active"
885,"SEYDİKEMER",49,"açıklama",3,1,"active"
886,"SEYDİLER",38,"açıklama",3,1,"active"
887,"SEYDİŞEHİR",43,"açıklama",3,1,"active"
888,"SEYHAN",2,"açıklama",3,1,"active"
889,"SEYİTGAZİ",27,"açıklama",3,1,"active"
890,"SINDIRGI",11,"açıklama",3,1,"active"
891,"SİLİFKE",34,"açıklama",3,1,"active"
892,"SİLİVRİ",35,"açıklama",3,1,"active"
893,"SİLOPİ",74,"açıklama",3,1,"active"
894,"SİLVAN",22,"açıklama",3,1,"active"
895,"SİMAV",44,"açıklama",3,1,"active"
896,"SİNANPAŞA",4,"açıklama",3,1,"active"
897,"SİNCAN",7,"açıklama",3,1,"active"
898,"SİNCİK",3,"açıklama",3,1,"active"
899,"SİVASLI",65,"açıklama",3,1,"active"
900,"SİVEREK",64,"açıklama",3,1,"active"
901,"SİVRİCE",24,"açıklama",3,1,"active"
902,"SİVRİHİSAR",27,"açıklama",3,1,"active"
903,"SOLHAN",13,"açıklama",3,1,"active"
904,"SOMA",46,"açıklama",3,1,"active"
905,"SORGUN",67,"açıklama",3,1,"active"
906,"SÖĞÜT",12,"açıklama",3,1,"active"
907,"SÖĞÜTLÜ",55,"açıklama",3,1,"active"
908,"SÖKE",10,"açıklama",3,1,"active"
909,"SULAKYURT",72,"açıklama",3,1,"active"
910,"SULTANBEYLİ",35,"açıklama",3,1,"active"
911,"SULTANDAĞI",4,"açıklama",3,1,"active"
912,"SULTANGAZİ",35,"açıklama",3,1,"active"
913,"SULTANHİSAR",10,"açıklama",3,1,"active"
914,"SULUOVA",6,"açıklama",3,1,"active"
915,"SULUSARAY",61,"açıklama",3,1,"active"
916,"SUMBAS",81,"açıklama",3,1,"active"
917,"SUNGURLU",20,"açıklama",3,1,"active"
918,"SUR",22,"açıklama",3,1,"active"
919,"SURUÇ",64,"açıklama",3,1,"active"
920,"SUSURLUK",11,"açıklama",3,1,"active"
921,"SUSUZ",37,"açıklama",3,1,"active"
922,"SUŞEHRİ",59,"açıklama",3,1,"active"
923,"SÜLEYMANPAŞA",60,"açıklama",3,1,"active"
924,"SÜLOĞLU",23,"açıklama",3,1,"active"
925,"SÜRMENE",62,"açıklama",3,1,"active"
926,"SÜTÇÜLER",33,"açıklama",3,1,"active"
927,"ŞABANÖZÜ",19,"açıklama",3,1,"active"
928,"ŞAHİNBEY",28,"açıklama",3,1,"active"
929,"ŞALPAZARI",62,"açıklama",3,1,"active"
930,"ŞAPHANE",44,"açıklama",3,1,"active"
931,"ŞARKIŞLA",59,"açıklama",3,1,"active"
932,"ŞARKİKARAAĞAÇ",33,"açıklama",3,1,"active"
933,"ŞARKÖY",60,"açıklama",3,1,"active"
934,"ŞAVŞAT",9,"açıklama",3,1,"active"
935,"ŞEBİNKARAHİSAR",29,"açıklama",3,1,"active"
936,"ŞEFAATLİ",67,"açıklama",3,1,"active"
937,"ŞEHİTKAMİL",28,"açıklama",3,1,"active"
938,"ŞEHZADELER",46,"açıklama",3,1,"active"
939,"ŞEMDİNLİ",31,"açıklama",3,1,"active"
940,"ŞENKAYA",26,"açıklama",3,1,"active"
941,"ŞENPAZAR",38,"açıklama",3,1,"active"
942,"ŞEREFLİKOÇHİSAR",7,"açıklama",3,1,"active"
943,"ŞİLE",35,"açıklama",3,1,"active"
944,"ŞİRAN",30,"açıklama",3,1,"active"
945,"ŞİRVAN",57,"açıklama",3,1,"active"
946,"ŞİŞLİ",35,"açıklama",3,1,"active"
947,"ŞUHUT",4,"açıklama",3,1,"active"
948,"TALAS",39,"açıklama",3,1,"active"
949,"TARAKLI",55,"açıklama",3,1,"active"
950,"TARSUS",34,"açıklama",3,1,"active"
951,"TAŞKENT",43,"açıklama",3,1,"active"
952,"TAŞKÖPRÜ",38,"açıklama",3,1,"active"
953,"TAŞLIÇAY",5,"açıklama",3,1,"active"
954,"TAŞOVA",6,"açıklama",3,1,"active"
955,"TATVAN",14,"açıklama",3,1,"active"
956,"TAVAS",21,"açıklama",3,1,"active"
957,"TAVŞANLI",44,"açıklama",3,1,"active"
958,"TEFENNİ",16,"açıklama",3,1,"active"
959,"TEKKEKÖY",56,"açıklama",3,1,"active"
960,"TEKMAN",26,"açıklama",3,1,"active"
961,"TEPEBAŞI",27,"açıklama",3,1,"active"
962,"TERCAN",25,"açıklama",3,1,"active"
963,"TERMAL",78,"açıklama",3,1,"active"
964,"TERME",56,"açıklama",3,1,"active"
965,"TİLLO",57,"açıklama",3,1,"active"
966,"TİRE",36,"açıklama",3,1,"active"
967,"TİREBOLU",29,"açıklama",3,1,"active"
968,"TOMARZA",39,"açıklama",3,1,"active"
969,"TONYA",62,"açıklama",3,1,"active"
970,"TOPRAKKALE",81,"açıklama",3,1,"active"
971,"TORBALI",36,"açıklama",3,1,"active"
972,"TOROSLAR",34,"açıklama",3,1,"active"
973,"TORTUM",26,"açıklama",3,1,"active"
974,"TORUL",30,"açıklama",3,1,"active"
975,"TOSYA",38,"açıklama",3,1,"active"
976,"TUFANBEYLİ",2,"açıklama",3,1,"active"
977,"TURGUTLU",46,"açıklama",3,1,"active"
978,"TURHAL",61,"açıklama",3,1,"active"
979,"TUŞBA",66,"açıklama",3,1,"active"
980,"TUT",3,"açıklama",3,1,"active"
981,"TUTAK",5,"açıklama",3,1,"active"
982,"TUZLA",35,"açıklama",3,1,"active"
983,"TUZLUCA",77,"açıklama",3,1,"active"
984,"TUZLUKÇU",43,"açıklama",3,1,"active"
985,"TÜRKELİ",58,"açıklama",3,1,"active"
986,"TÜRKOĞLU",47,"açıklama",3,1,"active"
987,"UĞURLUDAĞ",20,"açıklama",3,1,"active"
988,"ULA",49,"açıklama",3,1,"active"
989,"ULAŞ",59,"açıklama",3,1,"active"
990,"ULUBEY",53,"açıklama",3,1,"active"
991,"ULUBEY",65,"açıklama",3,1,"active"
992,"ULUBORLU",33,"açıklama",3,1,"active"
993,"ULUDERE",74,"açıklama",3,1,"active"
994,"ULUKIŞLA",52,"açıklama",3,1,"active"
995,"ULUS",75,"açıklama",3,1,"active"
996,"URLA",36,"açıklama",3,1,"active"
997,"UZUNDERE",26,"açıklama",3,1,"active"
998,"UZUNKÖPRÜ",23,"açıklama",3,1,"active"
999,"ÜMRANİYE",35,"açıklama",3,1,"active"
1000,"ÜNYE",53,"açıklama",3,1,"active"
1001,"ÜRGÜP",51,"açıklama",3,1,"active"
1002,"ÜSKÜDAR",35,"açıklama",3,1,"active"
1003,"ÜZÜMLÜ",25,"açıklama",3,1,"active"
1004,"VAKFIKEBİR",62,"açıklama",3,1,"active"
1005,"VARTO",50,"açıklama",3,1,"active"
1006,"VEZİRKÖPRÜ",56,"açıklama",3,1,"active"
1007,"VİRANŞEHİR",64,"açıklama",3,1,"active"
1008,"VİZE",40,"açıklama",3,1,"active"
1009,"YAĞLIDERE",29,"açıklama",3,1,"active"
1010,"YAHŞİHAN",72,"açıklama",3,1,"active"
1011,"YAHYALI",39,"açıklama",3,1,"active"
1012,"YAKAKENT",56,"açıklama",3,1,"active"
1013,"YAKUTİYE",26,"açıklama",3,1,"active"
1014,"YALIHÜYÜK",43,"açıklama",3,1,"active"
1015,"YALVAÇ",33,"açıklama",3,1,"active"
1016,"YAPRAKLI",19,"açıklama",3,1,"active"
1017,"YATAĞAN",49,"açıklama",3,1,"active"
1018,"YAVUZELİ",28,"açıklama",3,1,"active"
1019,"YAYLADAĞI",32,"açıklama",3,1,"active"
1020,"YAYLADERE",13,"açıklama",3,1,"active"
1021,"YAZIHAN",45,"açıklama",3,1,"active"
1022,"YEDİSU",13,"açıklama",3,1,"active"
1023,"YENİCE",18,"açıklama",3,1,"active"
1024,"YENİCE",79,"açıklama",3,1,"active"
1025,"YENİÇAĞA",15,"açıklama",3,1,"active"
1026,"YENİFAKILI",67,"açıklama",3,1,"active"
1027,"YENİMAHALLE",7,"açıklama",3,1,"active"
1028,"YENİPAZAR",10,"açıklama",3,1,"active"
1029,"YENİPAZAR",12,"açıklama",3,1,"active"
1030,"YENİŞARBADEMLİ",33,"açıklama",3,1,"active"
1031,"YENİŞEHİR",17,"açıklama",3,1,"active"
1032,"YENİŞEHİR",22,"açıklama",3,1,"active"
1033,"YENİŞEHİR",34,"açıklama",3,1,"active"
1034,"YERKÖY",67,"açıklama",3,1,"active"
1035,"YEŞİLHİSAR",39,"açıklama",3,1,"active"
1036,"YEŞİLLİ",48,"açıklama",3,1,"active"
1037,"YEŞİLOVA",16,"açıklama",3,1,"active"
1038,"YEŞİLYURT",45,"açıklama",3,1,"active"
1039,"YEŞİLYURT",61,"açıklama",3,1,"active"
1040,"YIĞILCA",82,"açıklama",3,1,"active"
1041,"YILDIRIM",17,"açıklama",3,1,"active"
1042,"YILDIZELİ",59,"açıklama",3,1,"active"
1043,"YOMRA",62,"açıklama",3,1,"active"
1044,"YUMURTALIK",2,"açıklama",3,1,"active"
1045,"YUNAK",43,"açıklama",3,1,"active"
1046,"YUNUSEMRE",46,"açıklama",3,1,"active"
1047,"YUSUFELİ",9,"açıklama",3,1,"active"
1048,"YÜKSEKOVA",31,"açıklama",3,1,"active"
1049,"YÜREĞİR",2,"açıklama",3,1,"active"
1050,"ZARA",59,"açıklama",3,1,"active"
1051,"ZEYTİNBURNU",35,"açıklama",3,1,"active"
1052,"ZİLE",61,"açıklama",3,1,"active"
